WiCS_Hacks_2025
…
print(result_ACF, n=10)

## # A tsibble: 13 x 3 [1Q]
## # Key:       .model [1]
##    .model                          lag      acf
##    <chr>                      <cf_lag>    <dbl>
##  1 TSLM(logA ~ Time + TimeSq)       1Q -0.255  
##  2 TSLM(logA ~ Time + TimeSq)       2Q -0.0354 
##  3 TSLM(logA ~ Time + TimeSq)       3Q  0.0131 
##  4 TSLM(logA ~ Time + TimeSq)       4Q -0.322  
##  5 TSLM(logA ~ Time + TimeSq)       5Q  0.0406 
##  6 TSLM(logA ~ Time + TimeSq)       6Q  0.00680
##  7 TSLM(logA ~ Time + TimeSq)       7Q  0.0274 
##  8 TSLM(logA ~ Time + TimeSq)       8Q -0.120  
##  9 TSLM(logA ~ Time + TimeSq)       9Q  0.0547 
## 10 TSLM(logA ~ Time + TimeSq)      10Q  0.0798 
## #  3 more rows
…
